﻿biomes.png=2050114396
dtm.raw=2714756097
dtm_processed.raw=1174374030
main.ttw=1499381754
map_info.xml=3267685847
prefabs.xml=2147328528
radiation.png=2710622404
spawnpoints.xml=1079805169
splat3.png=1428692238
splat3_processed.png=1385993124
splat4.png=464681072
splat4_processed.png=4241564348
